{
  "page": 5,
  "per_page": 10,
  "total": 41,
  "total_pages": 5,
  "data": [
    {
      "title": "Chrome 69 will keep Google Cookies when you tell it to delete all cookies",
      "url": "https://twitter.com/ctavan/status/1044282084020441088",
      "author": "pkiller",
      "num_comments": 810,
      "story_id": null,
      "story_title": null,
      "story_url": null,
      "parent_id": null,
      "created_at": 1537864744
    }
  ]
}
